+  0 6
+  7 3
+  5 7 2
+  3 2 5 8
+  6 0 3 4
+  0 3 4 3
+  4 6 9 8 1
+  3 6 8 0 4
+  5 5 6 1 8 4
+  0 6 9 5 9 1
+  4 1 1 2 1 9 4
+  6 3 8 8 1 0 2
+  7 2 8 5 8 5 0
+  8 0 8 4 8 1 4 4
+  0 1 1 4 8 7 1 8 6
+  2 0 6 9 4 4 5 1 2
+  4 1 1 8 9 0 5 0 9
+  1 9 3 7 3 5 7 9 3
+  9 7 4 9 1 1 8 8 5 0
+  4 9 5 9 2 4 2 0 1 4
-  1 7
-  9 6
-  7 4 9
-  8 7 4
-  7 7 5 0
-  5 5 9 6
-  6 9 1 3 0
-  4 6 9 7 6 0
-  0 4 9 8 2 9
-  3 7 2 0 0 7 3
-  3 4 4 6 3 7 3
-  5 0 0 1 7 5 1
-  9 7 4 1 3 8 0 7
-  5 3 1 5 0 8 8 3
-  1 2 7 7 5 0 6 6
-  5 1 8 6 4 5 6 2 9
-  6 1 2 7 6 1 4 3 4
-  3 2 0 4 0 3 0 0 9 8
-  9 5 4 9 2 1 1 7 6 8
-  3 1 0 0 4 6 8 3 4 7
